Bi Weekly assignment:Week 5 -Network analysis and visualization
…
Create a node-link diagram differentiating the type of nodes. For example, you can use different colors to denote Person and Dataset. Also, encode edge weights into the visualization. For example, you can use alpha or width to encode edge weights.

as.tibble(g1 %>% activate(edges))

## Warning: `as.tibble()` is deprecated, use `as_tibble()` (but mind the new semantics).
## This warning is displayed once per session.

## # A tibble: 150 x 3
##     from    to weight
##    <int> <int>  <dbl>
##  1     1    31     30
##  2     1    32     25
##  3     1    33     20
##  4     1    34     15
##  5     1    35     10
##  6     2    36     30
##  7     2    37     25
##  8     2    35     20
##  9     2    38     15
## 10     2    39     10
## #  with 140 more rows
…
