Bi-weekly Assignment Week 3: Apply tf-idf scheme to non-text data context.
…
1.Compute tf, idf, and tf-idf. Print in the report the top 10 student-kaggle data pairs in each of tf, idf, and tf-idf.

smba1 <- smba %>%
  mutate(ds_num =row_number())  

smba1 %>%
group_by(Name) %>%
summarize(n=n(), rating = mean(Weight)) %>% arrange(-n, -rating)

## # A tibble: 30 x 3
##    Name                  n rating
##    <chr>             <int>  <dbl>
##  1 Aaron Thomas          5     20
##  2 Alex Duquenne         5     20
##  3 Alex Webel            5     20
##  4 Brandi Cade           5     20
##  5 Brian Stamper         5     20
##  6 Chris Owens           5     20
##  7 Danielle Lumbatis     5     20
##  8 David Pickering       5     20
##  9 Esther See            5     20
## 10 Ian Cunningham        5     20
## #  with 20 more rows

#Convert to tidy text format
tidy_smba <- smba1 %>%
  unnest_tokens(word, Kaggle)

tidy_smba %>%
  count(word, sort=T)

## # A tibble: 328 x 2
##    word        n
##    <chr>   <int>
##  1 data       25
##  2 us         15
##  3 in         11
##  4 reviews     9
##  5 dataset     8
##  6 world       7
##  7 and         6
##  8 netflix     6
##  9 new         6
## 10 cans        5
## #  with 318 more rows
…
#Stemming
#final tidy data
library(SnowballC)
tidy_smba_1 <- tidy_smba %>%
  anti_join(stop_words) %>%
  anti_join(nums) %>%
  mutate(root = wordStem(word))

## Joining, by = "word"
## Joining, by = "word"

tidy_smba_1 %>%  count(word, sort=T)

## # A tibble: 307 x 2
##    word                n
##    <chr>           <int>
##  1 data               25
##  2 reviews             9
##  3 dataset             8
##  4 world               7
##  5 netflix             6
##  6 cans                5
##  7 craft               5
##  8 creditcardfraud     5
##  9 market              5
## 10 mlg                 5
## #  with 297 more rows

tidy_smba_1 %>%  count(root, sort=T)

## # A tibble: 298 x 2
##    root                n
##    <chr>           <int>
##  1 data               25
##  2 dataset             9
##  3 review              9
##  4 world               7
##  5 netflix             6
##  6 can                 5
##  7 craft               5
##  8 creditcardfraud     5
##  9 incom               5
## 10 market              5
## #  with 288 more rows
…
totals_smba<- words_smba %>% group_by(prod_id) %>% summarize(total=sum(n)) 

words_smba <- left_join(words_smba, totals_smba)

## Joining, by = "prod_id"

freq_by_rank <- words_smba %>% group_by(prod_id) %>% mutate(rank=row_number(), tf=n/total) %>% ungroup()

#computing idf
tidy_smba_1 %>% left_join(prods_smba) %>%
group_by(root) %>% summarize(ndocs=n_distinct(prod_id)) %>% arrange(-ndocs) %>% mutate(idf=log(nrow(prods_smba)/ndocs)) %>% print(n=10)

## Joining, by = "Name"

## # A tibble: 298 x 3
##    root            ndocs   idf
##    <chr>           <int> <dbl>
##  1 data               21 0.357
##  2 dataset             8 1.32 
##  3 review              7 1.46 
##  4 world               7 1.46 
##  5 can                 5 1.79 
##  6 craft               5 1.79 
##  7 creditcardfraud     5 1.79 
##  8 market              5 1.79 
##  9 mlg                 5 1.79 
## 10 nickhould           5 1.79 
## #  with 288 more rows
…
#root word can is for cancer, cans, cannabis so will not use stemming
#@@@@@@@
tidy_smba_1 <- tidy_smba %>%
  anti_join(stop_words) %>%
  anti_join(nums) 

## Joining, by = "word"

## Joining, by = "word"

tidy_smba_1 %>%  count(word, sort=T)

## # A tibble: 307 x 2
##    word                n
##    <chr>           <int>
##  1 data               25
##  2 reviews             9
##  3 dataset             8
##  4 world               7
##  5 netflix             6
##  6 cans                5
##  7 craft               5
##  8 creditcardfraud     5
##  9 market              5
## 10 mlg                 5
## #  with 297 more rows
…
totals_smba<- words_smba %>% group_by(prod_id) %>% summarize(total=sum(n)) 

words_smba <- left_join(words_smba, totals_smba)

## Joining, by = "prod_id"

freq_by_rank <- words_smba %>% group_by(prod_id) %>% mutate(rank=row_number(), tf=n/total) %>% ungroup()

#computing idf
tidy_smba_1 %>% left_join(prods_smba) %>%
group_by(word) %>% summarize(ndocs=n_distinct(prod_id)) %>% arrange(-ndocs) %>% mutate(idf=log(nrow(prods_smba)/ndocs)) %>% print(n=10)

## Joining, by = "Name"

## # A tibble: 307 x 3
##    word            ndocs   idf
##    <chr>           <int> <dbl>
##  1 data               21 0.357
##  2 dataset             7 1.46 
##  3 reviews             7 1.46 
##  4 world               7 1.46 
##  5 cans                5 1.79 
##  6 craft               5 1.79 
##  7 creditcardfraud     5 1.79 
##  8 market              5 1.79 
##  9 mlg                 5 1.79 
## 10 nickhould           5 1.79 
## #  with 297 more rows

#@@@@@@

#Shortcut to computing tf-idf statistic
tfidf_smba <- words_smba %>% bind_tf_idf(word, prod_id, n)

tfidf_smba  %>% arrange(-tf_idf) %>% print(n=10) 

## # A tibble: 535 x 7
##    prod_id word               n total     tf   idf tf_idf
##      <int> <chr>          <int> <int>  <dbl> <dbl>  <dbl>
##  1      30 cms                2    13 0.154   3.40  0.523
##  2      27 yelp               2    17 0.118   3.40  0.400
##  3      16 netflix            2    13 0.154   2.30  0.354
##  4      29 inspections        2    23 0.0870  3.40  0.296
##  5      16 hugomathien        1    13 0.0769  3.40  0.262
##  6      16 soccer             1    13 0.0769  3.40  0.262
##  7      30 federalreserve     1    13 0.0769  3.40  0.262
##  8      30 medicare           1    13 0.0769  3.40  0.262
##  9      30 nsharan            1    13 0.0769  3.40  0.262
## 10      30 rates              1    13 0.0769  3.40  0.262
## #  with 525 more rows
…
final_tf_idf %>% select(-Weight, -n, -total, -ds_num, -prod_id) %>% arrange(-tf-idf)

## # A tibble: 557 x 6
##    word          tf   idf tf_idf Name        Kaggle                        
##    <chr>      <dbl> <dbl>  <dbl> <chr>       <chr>                         
##  1 cms       0.154   3.40  0.523 Tasneem Mo cms/cms-medicare              
##  2 yelp      0.118   3.40  0.400 Shannon Po yelp-dataset/yelp-dataset     
##  3 inspecti 0.0870  3.40  0.296 Sophia Lai  new-york-state/nys-retail-foo
##  4 inspecti 0.0870  3.40  0.296 Sophia Lai  chicago/chi-restaurant-inspec
##  5 hugomath 0.0769  3.40  0.262 Kunal Gupta hugomathien/soccer            
##  6 soccer    0.0769  3.40  0.262 Kunal Gupta hugomathien/soccer            
##  7 federalr 0.0769  3.40  0.262 Tasneem Mo federalreserve/interest-rates 
##  8 medicare  0.0769  3.40  0.262 Tasneem Mo cms/cms-medicare              
##  9 nsharan   0.0769  3.40  0.262 Tasneem Mo nsharan/h-1b-visa             
## 10 rates     0.0769  3.40  0.262 Tasneem Mo federalreserve/interest-rates 
## #  with 547 more rows

final_tf_idf 

## # A tibble: 557 x 11
##    prod_id word      n total     tf   idf tf_idf Name  Kaggle Weight ds_num
##      <int> <chr> <int> <int>  <dbl> <dbl>  <dbl> <chr> <chr>   <dbl>  <int>
##  1       2 chic     2    21 0.0952 2.71  0.258  Alex chica     20     43
##  2       6 data      2    21 0.0952 0.357 0.0340 Chri tobyc     20    109
##  3       6 data      2    21 0.0952 0.357 0.0340 Chri grant     20    110
##  4       8 data      2    19 0.105  0.357 0.0375 Davi wendy     10    117
##  5       8 data      2    19 0.105  0.357 0.0375 Davi netfl      5    119
##  6       8 netf     2    19 0.105  2.30  0.242  Davi netfl      5    119
##  7      13 data      2    22 0.0909 0.357 0.0324 Jona shrut     20    112
##  8      13 data      2    22 0.0909 0.357 0.0324 Jona pavan     30    114
##  9      13 data      2    22 0.0909 0.357 0.0324 Jona rhueb     25    115
## 10      14 fifa      2    22 0.0909 2.71  0.246  Josh stefa     25     87
## #  with 547 more rows
…
## Warning: `as.tibble()` is deprecated, use `as_tibble()` (but mind the new semantics).
## This warning is displayed once per session.

## Warning: 'tidy.dgCMatrix' is deprecated.
## See help("Deprecated")

## Warning: 'tidy.dgTMatrix' is deprecated.
## See help("Deprecated")

td_sims

## # A tibble: 584 x 3
##    row   column    value
##    <chr> <chr>     <dbl>
##  1 1     1      1       
##  2 2     1      0.000804
##  3 3     1      0.00127 
##  4 4     1      0.428   
##  5 5     1      0.000810
##  6 6     1      0.258   
##  7 8     1      0.00208 
##  8 10    1      0.000853
##  9 11    1      0.0842  
## 10 12    1      0.0856  
## #  with 574 more rows
…
prods_smba %>% arrange(factor(prod_id, levels=doc_order)) %>% print(n=23)

## # A tibble: 30 x 2
##    Name                 prod_id
##    <chr>                  <int>
##  1 Matthew Fleming           23
##  2 Sarah Condon              26
##  3 Chris Owens                6
##  4 Matthew Davis             22
##  5 Kunal Gupta               16
##  6 Mary McClain              20
##  7 Shannon Poffenberger      27
##  8 David Pickering            8
##  9 Kristopher Koloini        15
## 10 Tasneem Motiwala          30
## 11 Samantha Day              25
## 12 Matt Hawes                21
## 13 Brian Stamper              5
## 14 Danielle Lumbatis          7
## 15 Shyni David               28
## 16 Alex Duquenne              2
## 17 Manish Kumar              17
## 18 John Ellis                12
## 19 Josh Mark                 14
## 20 Alex Webel                 3
## 21 Jonathan Parry            13
## 22 Aaron Thomas               1
## 23 Megan Appelt              24
## #  with 7 more rows
…
