Mid Term Project
…
#--------------------------
#Checking uniqueness with  Contact  Phone numbers 
Abandoned_Data_Seed_05_01 <- Abandoned_Data_Seed_05 %>% 
  select(Search_Customer, Email, Contact_Phone)
unique(Abandoned_Data_Seed_05_01)  

## # A tibble: 8,442 x 3
##    Search_Customer                  Email Contact_Phone 
##    <chr>                            <chr> <chr>         
##  1 Bertha NA NA NA NA NA            <NA>  (864)-004-6354
##  2 Kyle NA NA NA NA NA              <NA>  (703)-220-0148
##  3 Paxton NA NA NA NA NA            <NA>  (559)-299-7745
##  4 Thelma NA NA NA NA NA            <NA>  (636)-611-4439
##  5 Lorna NA NA NA NA NA             <NA>  (253)-461-5118
##  6 Leann NA NA NA NA NA             <NA>  (407)-910-9280
##  7 Jackson Lueilwitz NA NA NA NA    <NA>  (803)-853-6182
##  8 Hector Dickens NA NA NE NA       <NA>  (631)-808-0736
##  9 Nayeli Green NA NA NA NA         <NA>  (918)-738-2706
## 10 Joey Denesik NA East Jarod UT NA <NA>  (440)-480-7247
## #  with 8,432 more rows
…
#------------------------
#Checking uniqueness with  Incoming  Phone numbers 
Abandoned_Data_Seed_05_02 <- Abandoned_Data_Seed_05 %>% 
  select(Search_Customer, Email, Incoming_Phone )
unique(Abandoned_Data_Seed_05_02) #  47 customers had same incoming but different                                   #contact phone

## # A tibble: 8,395 x 3
##    Search_Customer                  Email Incoming_Phone
##    <chr>                            <chr> <chr>         
##  1 Bertha NA NA NA NA NA            <NA>  (864)-004-6354
##  2 Kyle NA NA NA NA NA              <NA>  (703)-220-0148
##  3 Paxton NA NA NA NA NA            <NA>  (559)-299-7745
##  4 Thelma NA NA NA NA NA            <NA>  (636)-611-4439
##  5 Lorna NA NA NA NA NA             <NA>  (253)-461-5118
##  6 Leann NA NA NA NA NA             <NA>  (407)-910-9280
##  7 Jackson Lueilwitz NA NA NA NA    <NA>  (803)-853-6182
##  8 Hector Dickens NA NA NE NA       <NA>  (631)-808-0736
##  9 Nayeli Green NA NA NA NA         <NA>  (918)-738-2706
## 10 Joey Denesik NA East Jarod UT NA <NA>  (440)-480-7247
## #  with 8,385 more rows
…
